141842943678

<strong>30193224-875</strong>

608
4224
4363
  85
 313
3037
3832
1823
2400
1418
4981
4714
 946
3464
4658
4757
3678
4976
4294
4156
 264
3820
3019
3224
3875
1354
1586
1587
1701
 726
1080
3137
4132
 459
2895
3057
4917
1253
3308
3768
3888
4788
2881
 594
4709
3012
3861
3409
 389
3116
3209
 382
 911
3619
 206
1807
 598
  50
4243
1350
4456
4774
2629
4199
 814
4548
4747
4050
3036
3129
3475
3940
3712
1205
2124
3904
2385
4039
3042
2766
  49
4233
 801
4410
 865
1954
3217
2921
 227
3741
3680
 751
2804
 537
1728
 915
3182
3201
3725
4985
1165
3053
3694
2077
1843
3428
1274
 899
1073
4608
1058
2576
4152
2667
 782
1931
2728
1218
 124
4264
 794
2079
2913
4338
1773
2264
3584
2679
 373
4503
 627
3440
2058
1982
4544
1076
2452
1307
1714
 130
4008
1287
4584
2170
 278
 605
3290
3442
4654
 718
3225
 561
 677
2010
3855
2932
 493
1757
4384
3594
4495
1030
4670
1526
3239
2525
 606
  18
4653
2943
3604
1181
2011
2043
3304
3987
1958
4074
4875
1377
3119
3608
4138
 983
3059
4792
 145
2890
 556
4390
3714
2700
3293
2518
1371
2462
 932
2852
3452
2978
4802
3676
 492
1044
2743
1815
2422
 367
4478
1427
 823
  43
4154
2145
 913
3413
 828
3114
 119
1197
3548
2250
3696
2210
2592
4920
4001
2465
4865
1693
1438
3484
 763
1618
3651
3601
2976
 738
4663
3332
1549
4208
4998
1622
4181
4618
1009
 936
3955
2021
4725
2469
 691
3549
4883
1207
3213
1993
2575
4212
3795
  63
1022
 826
4449
4924
3797
1049
2581
2633
 160
4965
1662
4912
1653
 485
1713
2963
3430
3720
2310
2060
3358
2330
3559
  83
2780
3226
1634
2373
4028
4587
3192
3461
4684
4755
 662
3899
4890
2969
2255
3423
4488
1225
4634
3314
1380
2896
1422
 508
3115
1186
3034
1573
2431
 194
 567
2586
2382
4900
1281
1669
 864
3360
2658
4467
4773
3803
2112
4161
2647
3969
2380
4833
 591
 221
3918
3120
3922
3770
1349
2432
2618
4816
2951
1325
3341
3155
 848
 428
2885
 898
3927
 250
2648
1324
 650
3170
4393
4921
 934
4386
1557
4800
4609
4202
1043
4831
 200
4706
1871
 350
1196
1898
3164
1431
 402
2819
2843
 762
3390
4489
1187
2724
1960
1212
2495
2370
 958
2389
2221
1319
3317
 551
4528
4616
 383
4521
4651
1231
4225
1330
4797
 356
4657
3856
3113
 693
2053
2045
2591
 613
1909
 490
4565
4905
4776
 825
1458
 270
 125
 997
4364
1247
1792
4220
1163
4535
1100
2456
 798
4947
 795
2332
3149
 666
 600
3142
2916
4059
1128
2832
2657
2967
2445
2424
3853
1284
2792
 502
4711
1752
4263
1515
3305
 891
4745
4762
1000
4898
1079
3298
1257
1711
4164
3787
4707
 461
2714
 423
  48
3491
2151
3022
 866
1127
4282
1149
4019
4882
1951
4819
3528
4260
1199
3276
4913
3072
 311
 407
4931
2607
 695
2823
4381
3934
1424
1725
3010
4383
 812
2133
2529
3447
1459
2099
2239
4879
 626
2486
1928
1295
1604
 185
4639
3535
 883
2325
4429
3306
4490
1877
 972
3952
 341
2900
1880
1110
4793
1074
1920
 437
4887
1813
3091
2893
4207
2640
1452
 118
2121
2835
4701
1003
1086
4705
  17
 432
  94
2404
4734
 978
4519
 337
2312
4963
3064
2869
 280
3421
4496
4986
 700
4350
3494
3668
3325
4430
2806
2720
1443
3368
2587
2132
2446
 800
 853
1626
 859
3196
1532
2120
 474
3436
4818
3343
1092
2538
2488
1518
1477
1152
3398
 634
2139
2160
1026
3798
4309
 471
2722
3041
1498
1200
4209
1913
4168
2481
2044
3695
4840
2223
2782
 415
 442
 692
4668
1005
3945
2499
4647
2526
 183
2025
 320
1478
3902
4254
3833
1927
1995
 797
3371
4829
2089
 960
3525
1433
2930
4642
 143
2470
  90
1041
1624
1154
2694
1574
2101
3215
3092
3316
1078
3585
1791
3102
4167
1318
1742
4672
2005
2808
4075
 772
 255
3021
1866
3666
3327
3890
 460
 810
4290
 544
1343
3429
 857
 176
3006
3574
3999
 131
2342
4578
 690
4595
2535
3983
 793
 813
4650
1869
3167
4604
  73
3348
4037
1297
3893
1674
 153
2396
3593
3839
2778
4989
4072
  69
3441
4870
1854
 279
2988
 447
 850
 602
3336
2941
4311
4361
2573
4667
  35
4443
3687
2284
4280
3928
1578
1147
3644
4511
1193
  67
4928
2487
 707
3506
 340
4375
2861
1724
2416
2717
3691
 729
3112
  62
2348
1471
2995
1172
 952
4562
4526
3639
 213
4765
2561
1581
4778
1535
1421
2603
 469
1754
1617
 464
1391
2444
 328
2224
1717
2388
3459
2195
2211
1529
 927
1294
2030
2493
2906
 929
2937
1533
2931
4128
3921
2323
1906
 129
4803
 895
4640
 444
4201
1279
 719
1316
1061
2696
3103
1825
3362
1694
 218
4558
2411
 408
 411
 617
 703
3669
 251
1941
4624
2004
4547
1663
1850
3165
3763
2878
  23
1644
4926
3895
4460
  33
4412
1740
 619
3385
2297
 466
4326
1822
1903
3941
4101
2276
2458
 893
 638
 996
  39
4997
1491
3174
2817
2764
1361
 578
4902
1963
4995
3151
2263
2320
  72
 620
 981
4481
4752
4434
3405
 284
2181
1525
2867
 568
4279
4406
1031
4631
4483
2376
2506
2756
4301
1296
1276
4389
3020
2423
3143
4922
2673
 721
1519
1809
3400
2393
4527
  77
2285
 869
2818
1389
1603
3783
1652
 992
2924
 177
1915
 371
2553
2605
2258
 175
2598
2894
3958
4395
2039
1445
3968
1641
2180
 647
 274
 179
3989
2918
2516
 424
 431
4379
1399
1957
2234
4993
1351
1892
 573
2232
4853
2228
3829
 717
4392
 316
2638
1625
 884
 210
4473
3721
2434
3733
4811
3024
1777
3998
2394
2117
1210
2754
2203
4810
3625
3703
3283
 769
3951
 291
2440
2407
 327
2767
4231
1395
  54
2639
1171
3135
1940
2731
1113
4933
1301
 788
2184
4862
 727
 101
 455
4583
2753
1094
3672
1592
 387
2763
3956
 830
4083
2610
2298
4024
1845
3172
3275
4067
4856
 950
3773
1658
4428
4360
 980
1328
4799
 621
3743
1174
 764
4923
 451
3603
4291
1585
1989
 874
2784
3640
4581
1093
3502
4664
3045
1847
 186
 468
4716
4242
 113
3157
 923
2129
 363
4704
2302
3860
2286
4373
 585
3159
1280
2755
3161
2135
4296
  59
  36
2707
1949
1463
3841
1008
2313
4807
  27
2716
4731
4204
3121
2463
3248
2589
4756
4736
2050
2698
3178
2209
 890
 640
2433
2922
1363
 723
1337
4730
 436
 212
 876
4743
2335
2301
3623
 473
 685
1081
 959
2229
4960
4292
3582
 217
2772
2367
1486
1567
4566
 535
3093
3724
2231
4585
2098
2887
1842
 552
1285
1924
 897
3183
2115
4108
3804
1059
 747
1570
2113
 583
 817
1188
1410
2164
4476
 399
2528
2143
1190
4686
1819
2666
4006
4610
1597
 542
3560
3654
3518
1381
4103
1836
1758
 807
2355
4374
4063
4850
3040
3708
3460
2092
 796
 961
3624
1565
1308
2952
 646
 584
4213
 698
2167
2363
1715
1201
4726
3821
2507
3243
1675
 728
4317
2071
1428
1895
 569
1286
 151
3254
4062
2082
2274
 722
1432
 596
2537
2314
1907
2191
1688
3005
2326
 301
 669
1464
2279
1930
3826
1372
2294
3959
 385
 190
3595
2651
4766
2999
 991
1249
 204
4669
1820
4557
4637
4365
3345
3885
3253
2051
3646
1654
3831
2953
3077
4959
1365
3810
2212
2299
2278
 187
1759
 821
2405
4863
3445
2825
 155
3309
 366
2582
3778
1912
2990
1879
3347
3497
4563
3835
3991
2584
1785
3801
 494
4512
2568
4287
1150
3745
3085
1462
3179
1531
3580
3076
3572
3038
1905
4419
4310
 475
1189
3221
1939
 141
3824
2148
 391
4841
2429
2378
3111
4448
2688
1872
4461
1929
3401
 882
4710
 140
4952
3589
3682
2966
4518
1627
1413
3515
 671
1342
 875
3908
 714
2973
4891
4355
 266
 158
 372
3588
1827
4425
3084
1881
4777
2419
4257
3274
 216
4284
1687
3524
2923
3913
 630
4313
4919
3715
2959
2616
4068
1706
3775
 205
4967
1965
2577
4482
3766
3337
1619
3950
2578
1770
1417
4182
3673
1191
4749
3117
4619
1552
1665
2185
3838
4345
1104
 171
4464
2611
 744
1474
 414
4176
3963
4216
2787
 642
3924
2202
2757
3607
 433
1554
1635
1050
3051
4871
 674
 720
2672
4814
2530
3661
2049
1082
1305
 974
3868
2726
3751
2442
 979
 587
 224
1219
3652
1561
 346
4861
2154
4163
2303
1998
4722
 114
3349
 438
1397
 688
 550
2708
3936
2341
2155
1198
 443
1069
 970
3169
 506
1217
4652
4916
  30
2860
4712
 681
3600
 430
 239
4589
1780
4516
3496
3128
3938
3670
1153
 856
4808
4990
2064
3533
2062
2014
2524
1504
1683
 541
2057
 121
3760
2190
  76
 716
 759
4402
2917
4362
4872
3361
1980
2048
2345
4783
 559
4540
4086
2794
2596
 253
 651
1798
 536
2838
2892
3095
1955
2183
2727
 654
3074
2251
1575
4000
3264
 406
 618
 842
3154
3532
 989
 943
2979
 211
 322
2534
4223
1643
2443
2713
1876
1607
4828
3536
4606
2547
4996
 142
 968
 276
1932
1195
2912
 588
4532
1942
1345
4110
1666
2622
  99
4366
1390
3897
4680
1366
3542
3568
3087
2955
1938
3545
1353
 100
4147
1121
4982
 770
 894
3710
4599
3863
3736
1848
1001
1950
3435
2165
 339
1117
2858
3011
3017
1616
2711
2019
1933
4111
4069
4196
2159
2768
2898
 586
 413
2800
1436
2811
3598
4016
4970
3776
3323
 116
3657
1194
 574
2777
2169
2733
2056
2830
1415
2289
3500
4732
 137
3612
 445
4337
 571
1914
2996
 117
 343
3923
1630
3456
2992
3319
4665
2514
1804
 877
4517
1686
4878
1220
 527
1786
3990
1239
2381
3764
4556
4162
 510
2243
3124
1216
3287
1917
4603
2197
1329
 404
4724
 334
1241
 521
 360
1527
3292
 872
4174
1667
3160
3408
4849
1071
3388
4236
1521
4955
3645
3230
 873
  32
4454
1605
4247
3947
1265
 486
4227
4066
2476
1511
 787
 994
2295
3744
3510
4129
 615
 167
2645
3446
3144
1384
2339
4956
  22
4404
1398
2166
4399
2522
4099
  66
 653
1503
 758
4679
 779
 393
4660
2383
4992
3184
2296
1546
2632
1712
2701
4560
4457
2238
4076
1572
1088
4600
1726
1134
4244
 809
4487
1057
3633
2847
3677
 512
1015
  44
 580
2774
2193
1543
1313
3302
4899
1769
 248
 916
1256
 458
4113
 545
4671
2409
1510
4042
3363
 420
3207
1642
1816
3854
4030
2682
3551
4435
4288
3873
2625
1070
1640
 539
4318
1656
1735
2846
4497
1032
4348
2771
3788
2192
3609
 918
4060
4079
1170
2000
3048
3805
4767
 947
4193
1489
2781
3962
 581
4493
 686
4935
1569
 509
1528
1229
 832
2306
4577
1512
4895
1689
2557
 522
 228
4057
3134
2206
 332
 215
4572
  57
4302
 344
3263
4514
3000
3534
1959
1002
1039
4938
3615
3439
4915
2130
3203
3717
4629
1087
2872
3718
4475
 732
1412
 816
4617
 631
2471
4420
3814
3642
 871
1698
1738
4727
   8
4206
 754
 906
4394
2384
2490
2410
 597
3752
4051
2347
4205
4927
3579
3054
1402
3994
3098
4465
 819
3288
2261
1461
 562
4133
3407
  16
1378
4866
1090
4771
2304
4295
2745
1278
3825
4570
1029
4889
1703
1175
4352
2046
1264
 325
 347
1160
4539
 845
4573
2989
4422
1886
3455
1839
 706
4984
1948
1259
3881
 907
2831
 233
 912
3324
 767
 766
3242
4255
1214
 867
 268
4078
4975
1400
3067
4151
2608
1598
1101
 375
3578
4214
2219
4823
2340
4180
1338
3479
 165
3685
2854
1614
3335
2960
 484
2985
 985
 378
 948
3530
2695
3425
1994
3437
4328
2602
 304
4845
2018
4844
4930
3665
 892
3189
 192
  61
4431
4784
3707
 582
3667
 286
2987
2147
2905
  64
4582
 513
4718
4191
1182
 663
1945
4413
4542
 702
2902
3550
 139
2176
4576
4873
1523
3285
 298
 106
2186
3573
3811
4839
3162
1112
1835
4907
3750
3107
 633
4222
2492
4621
1999
4880
 294
2665
 476
2418
 659
2100
2805
4453
4782
3028
4142
2579
4615
3779
2775
1763
 202
 273
2555
2874
4552
3222
3552
4054
1373
2214
 701
1834
1775
  98
2205
 169
4719
4867
3728
1660
2677
3240
1451
2038
2685
1405
4424
 765
3558
 201
1136
4347
3168
1916
2119
4248
4253
 641
2594
2509
1844
2546
2934
1479
4125
1485
 507
4289
4494
2520
3509
4906
4538
 173
1021
3970
4002
4329
4210
 984
3706
3836
 644
4605
1192
2886
2521
1537
2950
3140
3840
  29
3686
 713
2002
4359
  21
 203
  71
 554
2749
3396
2491
2956
3216
3353
1036
4034
 317
3784
 163
3531
1315
3849
3880
 107
4411
2032
2428
 132
3996
 925
2908
4847
3932
3862
 971
 269
3851
4235
2678
1323
1226
3052
2182
3451
3977
3381
3208
2047
 852
1749
3693
2390
4409
2788
1336
4048
4700
 259
4620
3339
3869
4458
1148
1610
1133
3262
3905
4308
2277
2454
3747
4158
1495
2408
 518
1716
3082
2055
1260
1720
3889
1348
2681
3865
4041
 126
1011
2366
 238
4382
2779
4315
 164
1116
3555
2266
1840
 400
1923
2208
 625
2076
3118
4588
2128
2659
4794
3700
2833
3062
3583
3727
 781
 277
4388
4135
 736
3504
3565
3527
4948
3871
1115
   1
4276
2141
3937
3731
3434
4613
4144
1068
4656
2687
3729
 570
3171
2123
 247
3424
 540
1646
2364
3175
1227
2090
1961
4630
4061
3311
3420
3605
 196
3799
1679
1013
2542
3296
  42
1611
 652
4852
1517
1849
1739
2125
1261
1874
2003
3194
2227
2327
4346
2864
2770
2412
4226
4972
4336
2131
  68
1145
3698
4031
4751
3816
 987
2453
2980
 487
1743
4126
2786
2065
 528
2116
 885
1750
   3
1446
4646
1335
4824
1566
1910
 734
2968
  26
1126
4579
4957
  46
 392
 696
1800
1987
 576
3540
1838
1551
1661
1018
2984
1668
1448
2954
3481
4095
  78
 860
1719
1536
3131
4397
1497
2961
4531
4015
 839
2836
4262
2802
1282
2630
4116
1332
2554
1362
2583
 519
2260
4945
3206
4551
3723
2136
4742
3294
1236
4018
2919
3104
1544
 705
2435
4555
1860
2884
 831
3781
3236
 281
2158
2986
2675
3649
1408
1846
3366
4349
3577
4692
4088
 565
1376
2654
3329
1271
4153
 636
4038
 342
2033
3043
 321
1340
2595
1971
1272
3212
3972
2569
1465
1700
 756
3141
 755
4825
4469
2699
1457
 924
3979
 673
 254
4943
2877
1576
 930
4010
 359
1444
3575
1290
3508
3830
3422
3256
 515
3746
3567
3756
1075
2110
2008
  81
1046
 405
1321
 799
2866
4644
2105
 945
1304
 252
 724
1306
2891
1118
4838
2068
3214
1956
2888
2088
2153
4834
2983
1705
4869
2070
3980
4358
 134
2791
4046
4484
 197
3755
1723
  58
1649
2371
 111
2621
 446
1647
4946
2686
3526
2977
1096
2015
1833
 351
4918
4953
 390
 977
2178
1275
2189
4944
4546
  28
1385
2138
2656
2475
2331
4230
 956
 575
3539
3223
1403
4632
4259
2855
3412
2901
2564
3874
 752
1369
3369
4169
1696
3809
 862
4575
2315
4267
2387
1317
2674
 920
2287
4806
2417
1502
  65
 315
2084
1828
2317
4910
1277
2259
3942
4554
4440
2827
2097
3202
 523
2769
 708
1469
3373
1419
2281
2288
 133
3066
 792
4977
2879
2157
1966
4966
3025
2523
1853
2947
3827
3352
 497
2652
3399
4804
 208
4089
1859
4636
3071
2945
4964
2179
3219
 689
3789
1129
4987
4265
1841
2541
4087
2168
2816
4855
  31
3469
 656
4827
4082
2789
 421
1251
 127
2395
2868
 881
1678
2500
4056
4655
 401
4121
2565
3557
4249
4498
1524
4896
2597
2468
  82
1702
  89
2703
4013
3541
2617
 427
2762
2828
2515
4096
 878
2643
  70
4159
3023
3995
1507
3364
1473
4954
 504
1594
1639
  96
 170
4688
4580
4418
4401
 412
3564
1234
3281
1312
3039
1263
3163
 503
 967
4109
1183
4130
2873
1564
3556
4932
2067
4607
4463
2590
 941
1953
2207
4371
2993
2519
2821
4146
1004
3822
2368
3270
2448
 914
3848
3136
2386
3252
1555
 624
2031
 731
1492
3180
3866
 774
1501
 501
1359
4179
4444
4155
3522
1258
2972
4114
3753
3730
4356
2615
1393
2841
 709
3985
 516
2796
1591
1921
2545
3726
3073
4118
4145
2041
3322
2702
4416
1657
1837
2102
2730
1382
1900
 741
2171
1577
3269
2746
 846
1692
3737
3086
3919
 262
3793
1045
3181
2747
4491
1878
2897
 678
1037
4492
3543
 300
1753
1599
4677
2086
3249
4035
2293
4299
 748
4218
 564
 305
4370
   9
1320
2548
1374
4515
2024
3286
1781
 955
 416
2964
4246
2876
4848
 439
1650
2636
3372
2504
3976
1882
1547
4177
 152
2026
4735
 921
 146
4805
 757
 803
4627
4258
2042
1439
1019
1795
3268
3870
3454
 563
3417
2875
3857
2401
4173
 682
4466
2237
3632
1347
   5
3279
3273
 679
2649
1156
3411
3458
3762
3355
1230
4543
   2
1875
3173
3916
3190
4237
1007
3061
1790
 645
2735
1481
3965
4094
3697
 760
1097
1248
1077
1600
2283
1571
2842
2626
 348
3749
 964
3586
2242
1944
4303
 379
  86
3626
4335
2570
1500
3653
3204
2822
2740
1111
1855
4715
3786
4271
 954
3903
 237
3739
1475
 543
3060
2997
3375
1346
4750
4323
4689
3845
1985
3282
5000
2599
 477
2305
1868
 589
  55
4534
3650
2559
 962
3393
1331
 440
1144
2426
1437
2146
3914
 193
4500
1483
1122
4415
 975
4055
1430
3843
3596
1893
4676
4798
1558
4611
4107
3537
1891
1334
1579
2752
3383
1538
 491
1979
2461
  93
1505
2744
4005
4821
  75
3620
1025
2982
 940
2837
3554
4127
4423
1522
3957
 199
4549
4427
 481
 180
3616
3492
2369
1064
  74
2567
2532
3606
 457
1904
3158
 824
4281
2939
 275
4738
3485
 740
2624
1858
 855
1352
2706
  87
 157
3722
4690
2290
  45
2815
3238
3790
1793
3346
  19
4593
 189
 737
4598
4240
4885
3009
2430
1984
2776
2865
2994
1832
1685
3709
 525
4250
1159
2508
1119
3818
4293
4170
1262
 310
1593
4307
1177
 511
3544
4764
3643
4150
4881
3081
1108
1996
2391
4659
4268
1300
4380
4501
 514
 168
4353
2217
3187
3237
 188
3297
4036
 746
4934
1033
1327
2637
 296
3166
3898
2566
1434
1588
4137
1801
3837
2601
4022
1010
3058
3800
4649
1139
3529
3546
 182
 222
4643
1796
1672
4550
1185
2106
4758
4480
3664
2957
4477
1707
2240
 903
2194
2718
2549
 235
4914
3774
4452
1047
 220
4874
4157
 381
1447
1729
2517
 226
 462
3630
3483
3844
1946
1143
2078
4502
2220
1167
1238
3517
4446
1426
3480
 162
1864
 472
1024
 172
2671
3378
1808
4789
2188
4685
1789
1601
4662
3310
3370
2620
2204
3513
1420
2114
2544
4693
4787
3876
3503
  47
2914
2944
2329
3148
 603
3915
2020
3152
3016
1084
3702
1176
4877
2036
3466
3260
1250
2940
4569
3188
1541
1394
4256
  92
 888
 285
2459
1943
4134
2734
4746
4522
1806
1922
 380
4614
2899
3050
4306
4504
2087
2198
2850
3988
1053
4748
1612
1774
3754
1978
4641
3872
 299
 282
3576
4835
3638
2793
1213
2421
 499
3465
3982
3307
1054
1810
1204
2215
4846
2346
2655
 827
4049
1977
3108
4269
4813
3566
1803
3126
2480
3177
4602
4474
2362
1851
3089
1224
3765
1636
1756
4261
2095
2676
4252
 735
3949
2859
2606
 632
4314
3900
1137
4043
4591
4312
1708
2308
3590
3478
1124
4525
3153
 102
4245
 319
4893
3007
4198
2292
4648
 258
3780
4868
 229
2883
3090
 935
2103
4407
1470
 778
4708
4936
3457
 725
1506
3571
2161
1887
2357
 419
2723
4104
2149
2333
1748
 749
 664
1727
4968
 614
 355
3277
3110
2845
 531
3176
2225
3796
2256
1829
1691
4574
2929
3834
4661
3354
2009
2246
3473
3993
3467
 236
4786
 256
1456
4160
4197
3259
3229
4780
 517
2627
1534
1120
2689
 448
1299
3757
 986
4537
1817
1062
1487
4032
1760
2352
1358
1449
3967
 243
1771
 768
2093
2338
1633
4441
4439
1899
1164
2909
1482
1132
4124
3663
1659
3974
2029
 426
1228
 611
4675
 330
4983
3470
1986
1406
4506
 529
1870
4300
1964
 297
 384
1091
4405
4319
   7
 429
 364
2563
3688
 496
3471
3884
2741
2379
 612
1221
3887
3146
 973
3321
4470
3486
4149
3046
4594
1783
 195
3948
 335
4178
3139
4106
1060
1768
3150
2196
 790
2809
3846
3300
3561
1896
4892
3109
2365
2813
 843
 976
1590
 178
2814
2012
 775
3105
2273
3883
 288
3973
   6
2118
 365
1676
2252
3886
1130
3489
2414
2965
 349
1375
 548
2612
 773
2571
 784
3266
3683
2824
1620
1089
2437
3431
2572
4625
4029
4974
3280
1269
3906
 966
3930
3123
2109
2810
2254
2075
3030
2152
 418
3910
2704
3659
4691
1161
2270
 331
4695
4698
4832
4115
4340
3771
 148
3960
2739
3033
 949
2353
 312
1991
1072
1779
4378
1709
3350
4332
4368
  51
  14
1202
2321
4047
3395
3823
4058
2998
1690
4187
1454
2938
4626
2540
 815
 697
 668
3538
1897
1490
1926
4568
1651
1105
3247
1861
 683
4064
3954
 245
3794
4367
 265
3490
3365
3145
2397
4775
1970
1767
 283
 908
1648
3342
2911
 524
4962
 449
3018
1109
3879
4080
 739
3992
2795
1006
1404
1697
1699
1242
3291
4272
2096
4720
 260
4451
1704
4876
2307
2936
4770
4728
4123
3944
3474
2319
3867
2222
1401
2441
3384
4971
1268
3419
 710
 982
1762
3597
4215
3719
2580
 628
2801
1311
1553
2732
3246
3926
3032
2826
1270
2742
 219
 939
4387
4232
3553
2472
4203
1638
3403
4020
2199
4815
2356
1441
3655
3357
3713
4994
4122
1918
4195
1615
2748
 904
2849
1339
3622
3078
1095
1824
2856
3817
3734
2773
4703
3740
3894
 854
3482
 667
 806
4045
4687
2710
 308
2785
2455
3495
3997
4520
4417
3882
1141
4283
4165
 863
1602
2063
3443
2857
1981
 730
4820
4949
1764
2798
4864
1356
  13
3581
3326
1901
4592
 637
1028
2175
1416
4571
 249
2415
4285
2750
4678
4854
1166
1671
4969
1146
3195
3331
2174
 610
 822
2560
 607
 879
1973
1309
 909
 149
2427
3591
4601
3414
2156
 840
4937
3901
2016
1051
4508
4090
 538
3984
1142
4014
2729
 104
 655
4437
1235
2482
 417
2485
2552
3891
 403
1628
1468
3476
1934
 804
3063
2375
4699
 802
2680
3382
4275
1606
2635
 780
4822
4391
3235
 546
1721
2501
3610
3303
3426
2839
2349
1496
4530
4376
 791
 609
3499
 896
  88
1484
1889
1637
4189
2282
 953
3675
3015
3379
2510
4251
2007
3570
2533
 240
 526
4471
3602
2253
 944
2904
3864
1784
1442
3684
4433
1799
 553
3031
3477
3244
 520
3197
4234
4753
3975
4717
3521
 841
1244
3055
1493
1983
3080
4003
 533
4221
 785
2483
2081
 622
 318
2712
 261
3767
2361
4011
3312
 599
1040
3433
2844
4759
3468
1582
  37
2358
3907
3808
3660
2551
 488
4400
3547
1589
2585
3125
2351
2593
1341
1222
4341
2664
4505
3681
 777
2072
3674
  53
2269
4723
 530
1488
3656
4217
2241
2413
1865
4741
4857
1621
3627
1883
1812
2691
3284
3463
4536
 733
4229
1472
1233
 352
4673
3241
1066
2840
2971
 161
1098
4081
2262
2322
3909
1326
3761
4696
3272
4903
 837
4884
1746
4812
 314
 135
3210
3629
1962
1267
3613
 919
1460
1613
3599
  11
2162
3035
3759
3001
  24
4040
4674
4623
3819
2803
2309
4760
4533
2187
2715
3438
2226
4909
1114
 338
1206
1027
 988
 665
1741
2807
3711
 593
 902
3075
4739
1745
3449
3261
3850
4929
 844
2820
4297
1972
2662
3501
4119
2473
 704
3047
 482
2942
2094
1292
1867
4904
1559
 336
1782
1681
 479
2406
 829
3635
4219
 917
2316
 601
4860
1831
3692
3394
4097
4851
 397
2451
1357
3637
2268
1631
3002
1223
3813
1302
 353
1246
1386
2619
3070
3971
3563
4331
1392
 395
 435
 368
4105
 207
4017
1453
3029
4241
3199
1364
3377
1314
3227
 820
3806
1360
2634
4681
2127
3257
 590
3094
2300
1180
2709
4085
 324
1466
1355
1368
4958
 287
 478
4270
 480
1065
1734
1778
2392
4682
1131
1387
4737
1969
2134
2059
4333
1379
4541
1542
2948
2527
 120
2853
 467
1583
1383
4175
 880
4372
3511
4070
3617
2962
2484
4286
2318
 995
4635
 835
4273
3299
1623
3662
1388
2122
3929
3096
4472
  97
2970
1911
2163
 957
2272
4357
2862
4143
 712
1017
3138
4354
1935
1548
2267
  41
4278
1563
3966
 147
1992
1761
1976
4442
 136
1407
1085
1052
2271
4529
 990
 174
 115
3122
1067
4941
3611
4666
4026
4859
 209
2425
1857
1884
 937
4754
  20
  34
1158
4842
3013
1733
1968
1888
1034
4027
4007
3004
1873
 786
3716
3920
2543
4266
2028
4414
2436
3462
4772
 409
3748
3505
 808
2512
1038
4697
2550
2812
3069
4102
2513
 495
 109
2644
1530
3636
1055
4098
1168
 938
2692
 889
3981
3512
 675
4274
1919
4183
2324
1560
 295
3220
 307
 931
 465
4510
1042
  12
2311
2343
1178
2758
4316
1516
3738
1169
4979
4507
4327
2650
4172
3772
 396
2660
1232
3132
1765
1409
3701
 289
2829
3931
3258
 198
4334
2150
2927
3859
1273
 333
3068
4239
 105
3432
1450
1673
4858
 965
3106
3777
 750
4622
1048
4091
4112
4398
3911
2907
3705
2738
2925
1830
3100
 684
1455
 999
4408
 234
 742
1344
1056
2474
2108
 500
4978
 370
3127
2073
 498
2882
 805
3380
2291
 672
4545
4339
2111
3003
1682
 577
1632
2609
 326
4940
4781
 388
3374
 505
3099
 470
 246
3621
4304
3631
3732
4596
3315
3193
2137
4564
2539
4779
 635
 214
3735
1252
4988
4077
2631
 242
4733
2496
2140
2799
2848
  60
1747
1539
 572
3782
2765
3792
 547
  56
4436
1303
4166
4911
4004
 357
3008
3847
2628
2497
1856
1937
2017
4801
2489
 377
1240
 410
4729
1936
3255
 771
1020
2505
3231
 886
 868
2661
3647
 191
2851
  15
 376
1787
1677
  79
3083
4888
3878
2926
  40
 532
 818
1947
3514
 694
1805
 901
1975
 422
3147
1063
2903
3044
2761
4455
2889
1494
3523
1107
1736
 657
  52
2760
2503
4148
1499
1684
4790
2447
 108
  95
3943
1802
1766
4513
4305
1423
3156
4961
3049
4186
2142
2870
1209
3406
4999
1695
2402
 483
3842
 456
2236
 745
2531
1411
4023
3671
2233
 159
2502
3896
1367
4524
 128
 951
4830
1255
4092
1826
2697
2275
3892
1370
1288
2074
3807
1508
 549
3389
1562
3519
1237
 463
2494
3334
 450
1925
 369
1103
1885
1414
1102
2334
2354
2653
4462
4796
1710
3344
2172
2069
1514
3356
4795
3498
 323
4120
4021
3186
4432
 184
1556
4942
2085
2257
1744
3852
3251
1755
 963
3802
3415
4053
3634
 303
4320
2719
2450
1125
2080
 123
3313
1106
2457
1596
2213
2040
1140
1629
1322
4817
 833
 293
4683
1157
2736
2834
1894
3658
 244
4025
4597
4343
3391
4499
4342
1890
 649
4908
2372
4509
 231
 358
  80
1099
 900
4486
 425
1016
3978
4044
 789
1245
1655
 558
3444
 851
1243
 660
2027
3233
4426
2359
2173
3026
4612
 122
3205
4073
4325
2915
4769
4192
3232
3386
2614
4012
 847
1467
1967
3402
1584
2536
 715
3097
2374
1211
1990
2054
 454
 870
3812
2006
 292
2783
1266
1151
3946
  25
3397
3679
3185
1772
2693
4396
3234
1289
4791
4009
1298
 811
4093
 290
1730
1425
3245
3828
2104
 616
3101
4298
  10
3448
3427
 858
2600
1751
1609
3933
3472
 639
2399
4324
 329
4763
2684
 138
4785
 836
 838
 441
4468
1179
1811
 834
4438
3027
4939
2377
1293
3935
3569
4033
2035
 993
1429
1645
2574
2935
4385
2498
 534
4980
1291
2001
 309
 648
2910
1509
3939
2144
2177
 579
 386
4322
1014
2249
1988
2797
4445
1718
 783
4586
3628
4553
3704
4211
2201
4590
3815
3858
 887
2460
1788
2558
2091
3387
4141
3056
2683
3133
  38
2245
4901
1737
3079
 434
2022
1254
4826
 743
2083
 629
2479
 905
2337
4139
4950
1680
2974
3769
4973
1862
2663
1283
1908
1480
2705
3065
2216
2511
4188
 604
2328
2235
2668
 761
  84
3912
3228
3493
 623
4084
3416
1814
1664
1852
3250
3318
4886
 592
 110
4561
4447
 942
1162
 489
2642
4131
 861
1396
1135
2991
 922
2669
 560
 257
2467
2398
2737
3404
3618
4369
4991
1818
2247
3351
3289
 232
 711
2280
2690
 398
2066
2248
2344
4836
4925
4403
 453
3699
2439
3785
3328
1821
4421
3295
3690
 926
 452
2725
4638
1083
4694
4744
1608
3278
4721
3200
2265
4894
3271
2556
1310
2478
4768
3961
 230
 687
2449
1863
4194
2623
1722
1997
 345
 267
4330
 144
 271
1580
1173
1476
4136
2200
3320
3359
4351
3917
1203
2061
1520
4344
2981
4628
2946
2107
1208
3925
3592
 849
3742
4645
4185
4559
3516
 361
2244
4065
2641
 699
2477
3367
4897
4837
2350
2466
3758
3014
2604
2052
3392
4479
4052
1123
 263
 753
4071
2933
4238
1568
 670
 555
 223
3198
4450
1974
 302
4171
2871
2403
3964
2920
1797
   4
2958
 928
2218
1035
4277
 661
4200
1184
 241
2013
3267
1902
3641
3953
 156
3791
4459
4100
 998
 969
4184
3191
 225
 362
1794
2023
3648
1732
4713
4523
2759
2975
3488
3330
1513
3410
3338
2336
  91
1435
2751
3265
3487
1550
2863
1545
4485
1670
 306
 680
3520
2562
4702
 595
1540
1440
3333
 658
4951
3562
4761
1731
2646
4228
2928
 676
3587
 272
2880
2360
 354
4843
 557
2034
3507
2230
4140
2670
2464
3376
1776
3301
3453
1138
4321
3450
 166
2420
2721
3130
 154
1595
 150
1952
3088
 933
3218
2126
3340
2588
 112
4633
3418
4377
 394
 643
 776
2037
3877
3986
4567
4190
1333
4740
2613
 181
 910
2790
3614
 103
1155
1012
1023
2438
1215
 374
4809
3689
2949
 566
3211
4117